{
  "$schema": "https://docs.renovatebot.com/renovate-schema.json",
  "extends": [
    "config:recommended"
  ],
  "packageRules": [
  {
    "matchPackagePatterns": ["WebSharper"],
    "groupName": "WebSharper"
  },
  {
    "matchPackagePatterns": ["Humanizer"],
    "groupName": "Humanizer"
  },
  {
    "matchPackagePatterns": ["Hangfire"],
    "groupName": "Hangfire"
  },
  {
    "matchPackagePatterns": ["FsPickler"],
    "groupName": "FsPickler"
  }
  ]
}
