"id","nom","prenom","fonction","service","company_email"
"100146","Rutherford","Albert","Dynamic Metrics Administrator","Grocery & Computers","Albert_Rutherford95@hotmail.com"
"100115","Altenwerth","Alberta","Forward Web Planner","Garden","Alberta_Altenwerth@yahoo.com"
"100167","Schimmel","Alejandro","International Data Engineer","Beauty & Health","Alejandro.Schimmel62@hotmail.com"
"100145","Huel","Alfonso","Chief Solutions Manager","Automotive","Alfonso.Huel59@gmail.com"
"100101","Becker","Ana","Chief Mobility Specialist","Toys","Ana48@hotmail.com"
"100133","Kozey","Ana","Principal Web Representative","Sports, Jewelery & Home","Ana_Kozey@gmail.com"
"100131","Cremin","Andrea","Investor Interactions Coordinator","Industrial, Books & Shoes","Andrea_Cremin@hotmail.com"
"100125","Auer","Angela","Corporate Group Strategist","Baby","Angela24@gmail.com"
"100183","Vandervort","Barry","Direct Security Designer","Sports & Clothing","Barry.Vandervort@hotmail.com"
"100164","Turcotte","Belinda","Regional Data Facilitator","Industrial","Belinda83@hotmail.com"
"81","Hayes","Bernadette","District Integration Associate","Garden, Jewelery & Movies","Bernadette_Hayes@gmail.com"
"100120","Goyette","Boyd","Investor Web Consultant","Sports & Clothing","Boyd_Goyette@yahoo.com"
"100175","Mante","Bryan","National Integration Administrator","Baby & Kids","Bryan_Mante92@hotmail.com"
"100130","Luettgen","Camille","Global Operations Technician","Clothing, Kids & Movies","Camille_Luettgen@gmail.com"
"100123","Schuppe","Carroll","District Security Manager","Movies, Automotive & Baby","Carroll67@yahoo.com"
"100102","Predovic","Cathy","Principal Division Coordinator","Tools, Outdoors & Automotive","Cathy.Predovic@gmail.com"
"100116","Thiel","Charlotte","Principal Usability Analyst","Shoes, Electronics & Books","Charlotte10@gmail.com"
"86","Bahringer","Dewey","Corporate Functionality Administrator","Health","Dewey_Bahringer44@hotmail.com"
"100162","Keeling","Eddie","National Usability Officer","Outdoors","Eddie.Keeling@yahoo.com"
"100166","McClure","Erika","Global Metrics Planner","Tools & Grocery","Erika.McClure27@hotmail.com"
"70","Steuber","Essie","Forward Tactics Specialist","Clothing, Beauty & Outdoors","Essie.Steuber14@yahoo.com"
"100105","Schinner","Faith","Legacy Solutions Architect","Electronics, Sports & Baby","Faith8@gmail.com"
"100193","Herzog","Forrest","Central Creative Producer","Games","Forrest12@gmail.com"
"100119","Walter","Frederick","National Accounts Assistant","Outdoors, Grocery & Kids","Frederick.Walter@yahoo.com"
"100111","Macejkovic","Genevieve","Legacy Response Orchestrator","Games & Grocery","Genevieve_Macejkovic77@gmail.com"
"100161","Kiehn","Gilbert","Investor Integration Architect","Sports, Grocery & Kids","Gilbert73@yahoo.com"
"100150","Goldner","Gina","Global Directives Director","Grocery & Tools","Gina_Goldner30@gmail.com"
"100174","Predovic","Hattie","Central Applications Architect","Games & Beauty","Hattie63@yahoo.com"
"100154","Ebert","Hilda","Internal Response Designer","Computers & Electronics","Hilda84@hotmail.com"
"100128","Labadie","Irma","Direct Tactics Facilitator","Toys","Irma_Labadie@gmail.com"
"100117","Dickens","Irvin","Dynamic Configuration Engineer","Toys","Irvin.Dickens@hotmail.com"
"100113","Schmeler","Jaime","Internal Applications Developer","Industrial & Home","Jaime_Schmeler@hotmail.com"
"100151","Wintheiser","Jana","International Functionality Executive","Beauty","Jana10@gmail.com"
"100196","Jones","Janis","International Markets Manager","Jewelery, Shoes & Movies","Janis_Jones@yahoo.com"
"100134","Heidenreich","Jay","District Interactions Architect","Kids, Outdoors & Baby","Jay.Heidenreich64@hotmail.com"
"100141","Steuber","Jeanette","Investor Paradigm Analyst","Outdoors & Industrial","Jeanette.Steuber@hotmail.com"
"100156","McClure","Jeanne","Senior Optimization Director","Industrial","Jeanne.McClure@hotmail.com"
"100142","Macejkovic","Jenny","Future Infrastructure Analyst","Jewelery & Grocery","Jenny.Macejkovic42@gmail.com"
"100135","Ebert","Jessica","Lead Directives Facilitator","Games","Jessica.Ebert67@yahoo.com"
"94","Wilderman","Johanna","Chief Branding Orchestrator","Grocery & Automotive","Johanna.Wilderman97@hotmail.com"
"100110","Haley","Joshua","Chief Security Designer","Games, Grocery & Books","Joshua53@gmail.com"
"100190","Hoppe","Kathryn","Future Functionality Manager","Garden, Garden & Industrial","Kathryn_Hoppe@yahoo.com"
"100185","Bernhard","Kelli","Product Interactions Liaison","Jewelery & Computers","Kelli_Bernhard68@yahoo.com"
"83","Huels","Kimberly","Lead Optimization Analyst","Books","Kimberly_Huels53@yahoo.com"
"100180","Goyette","Kristy","Product Communications Consultant","Industrial","Kristy_Goyette@hotmail.com"
"100188","Reynolds","Laura","Principal Security Consultant","Movies & Books","Laura_Reynolds@gmail.com"
"100140","Emmerich","Luis","Dynamic Web Director","Home & Computers","Luis26@yahoo.com"
"100155","Pfeffer","Lula","Internal Usability Director","Sports","Lula56@gmail.com"
"100176","Reichert","Lynette","Direct Identity Producer","Clothing & Home","Lynette10@gmail.com"
"100170","Weber","Malcolm","Dynamic Operations Assistant","Garden, Baby & Sports","Malcolm.Weber27@gmail.com"
"76","Hammes","Marcos","International Accounts Consultant","Industrial & Health","Marcos.Hammes76@gmail.com"
"100159","Schuppe","Matt","Investor Metrics Associate","Grocery, Clothing & Beauty","Matt47@yahoo.com"
"100124","Hickle","Milton","Direct Implementation Orchestrator","Clothing","Milton96@yahoo.com"
"75","Miller","Nadine","Future Accountability Manager","Tools & Music","Nadine_Miller@yahoo.com"
"87","Hansen","Norman","International Communications Planner","Garden, Baby & Garden","Norman.Hansen27@hotmail.com"
"100144","Pfannerstill","Owen","District Quality Representative","Music & Clothing","Owen_Pfannerstill62@hotmail.com"
"100182","Goldner","Ramon","Dynamic Functionality Architect","Tools & Grocery","Ramon97@gmail.com"
"100118","Ritchie","Randal","Forward Paradigm Representative","Tools & Automotive","Randal_Ritchie48@hotmail.com"
"82","Denesik","Raphaël","Human Program Planner","Jewelery","Raphael45@hotmail.com"
"100106","Bartell","Raquel","Corporate Configuration Officer","Health & Clothing","Raquel_Bartell57@yahoo.com"
"100178","Kemmer","Raul","Direct Intranet Agent","Beauty","Raul_Kemmer77@gmail.com"
"100129","Denesik","Roosevelt","Legacy Communications Strategist","Sports","Roosevelt67@hotmail.com"
"100137","Mayer","Ruben","Future Integration Designer","Music","Ruben4@gmail.com"
"100179","Casper","Rudy","Central Mobility Supervisor","Games, Games & Movies","Rudy99@hotmail.com"
"100148","Hettinger","Ryan","District Identity Officer","Outdoors & Industrial","Ryan69@yahoo.com"
"100121","Mayer","Sam","District Optimization Developer","Shoes & Computers","Sam.Mayer42@gmail.com"
"100126","Reichert","Sonya","Legacy Response Analyst","Outdoors, Garden & Clothing","Sonya.Reichert47@yahoo.com"
"100191","Schuster","Spencer","District Usability Orchestrator","Books & Baby","Spencer90@hotmail.com"
"100187","Collier","Sylvia","Corporate Functionality Developer","Beauty, Movies & Beauty","Sylvia_Collier@gmail.com"
"72","Miller","Theresa","Dynamic Applications Agent","Clothing","Theresa_Miller@gmail.com"
"90","Steuber","Toni","Chief Division Administrator","Tools","Toni82@hotmail.com"
"100198","Padberg","Tyrone","National Usability Liaison","Garden, Industrial & Industrial","Tyrone_Padberg@hotmail.com"
"100192","Kerluke","Wanda","Dynamic Optimization Orchestrator","Music","Wanda45@gmail.com"
"100160","Flatley","Wesley","Product Optimization Administrator","Outdoors","Wesley_Flatley@hotmail.com"
"74","Padberg","Willie","District Metrics Facilitator","Music","Willie_Padberg@yahoo.com"
"100184","Dare","Wilson","Customer Intranet Executive","Industrial","Wilson_Dare46@hotmail.com"