[
  {
    "id": 81,
    "nom": "Hayes",
    "prenom": "Bernadette",
    "fonction": "District Integration Associate",
    "service": "Garden, Jewelery & Movies",
    "company_email": "Bernadette_Hayes@gmail.com"
  },
  {
    "id": 82,
    "nom": "Denesik",
    "prenom": "Raphaël",
    "fonction": "Human Program Planner",
    "service": "Jewelery",
    "company_email": "Raphael45@hotmail.com"
  },
  {
    "id": 83,
    "nom": "Huels",
    "prenom": "Kimberly",
    "fonction": "Lead Optimization Analyst",
    "service": "Books",
    "company_email": "Kimberly_Huels53@yahoo.com"
  },
  {
    "id": 84,
    "nom": "Marks",
    "prenom": "Raphaël",
    "fonction": "International Branding Director",
    "service": "Industrial",
    "company_email": "Raphael.Marks56@gmail.com"
  },
  {
    "id": 85,
    "nom": "Kuhic",
    "prenom": "Geneva",
    "fonction": "Direct Mobility Analyst",
    "service": "Music",
    "company_email": "Geneva.Kuhic33@hotmail.com"
  }
]
