[
            {
              "id": 200001,
              "date": "2018-01-23 00:00:00",
              "titre": "Meeting",
              "memo": "this is the memo"
            },
            {
              "id": 200002,
              "date": "2014-03-13 00:00:00",
              "titre": "Discussion",
              "memo": "this is another memo"
            },
            {
              "id": 200003,
              "date": "2019-03-13 00:00:00",
              "titre": "Brainstorming",
              "memo": "*the* memo"
            }
]
